{
  "project_info": {
    "project_number": "969421999291",
    "firebase_url": "https://ucuapp-db916-default-rtdb.firebaseio.com",
    "project_id": "ucuapp-db916",
    "storage_bucket": "ucuapp-db916.appspot.com"
  },
  "client": [
    {
      "client_info": {
        "mobilesdk_app_id": "1:969421999291:android:be2946d1d4ec0e86d9ed9e",
        "android_client_info": {
          "package_name": "com.ucu.ucu_app"
        }
      },
      "oauth_client": [
        {
          "client_id": "969421999291-n5u0s0nhn1khv0en35qtb6428942bpae.apps.googleusercontent.com",
          "client_type": 3
        }
      ],
      "api_key": [
        {
          "current_key": "AIzaSyD9sjWy_LTQ6xILqruzsCUpk7xD3NcSIdw"
        }
      ],
      "services": {
        "appinvite_service": {
          "other_platform_oauth_client": [
            {
              "client_id": "969421999291-n5u0s0nhn1khv0en35qtb6428942bpae.apps.googleusercontent.com",
              "client_type": 3
            }
          ]
        }
      }
    }
  ],
  "configuration_version": "1"
}